ggplot2_exercises_solution
…
Finding out other datasets in ggplot2

data(package = ggplot2) *This should open up a new window named R data sets

Conversion of cty and hwy into European standard of 1/100km

# Original cty and hwy variables are in miles per gallon (mpg). So, I did some research online: (https://www.unitjuggler.com/convert-fuelconsumption-from-mpg-to-lper100km.html) 
#Let's multiply cty and hwy by 235.21
mpg %>% 
  mutate(cty = cty*235.21, hwy = hwy*235.21)

# A tibble: 234 x 11
   manufacturer      model displ  year   cyl      trans   drv     cty
          <chr>      <chr> <dbl> <int> <int>      <chr> <chr>   <dbl>
 1         audi         a4   1.8  1999     4   auto(l5)     f 4233.78
 2         audi         a4   1.8  1999     4 manual(m5)     f 4939.41
 3         audi         a4   2.0  2008     4 manual(m6)     f 4704.20
 4         audi         a4   2.0  2008     4   auto(av)     f 4939.41
 5         audi         a4   2.8  1999     6   auto(l5)     f 3763.36
 6         audi         a4   2.8  1999     6 manual(m5)     f 4233.78
 7         audi         a4   3.1  2008     6   auto(av)     f 4233.78
 8         audi a4 quattro   1.8  1999     4 manual(m5)     4 4233.78
 9         audi a4 quattro   1.8  1999     4   auto(l5)     4 3763.36
10         audi a4 quattro   2.0  2008     4 manual(m6)     4 4704.20
# ... with 224 more rows, and 3 more variables: hwy <dbl>, fl <chr>,
#   class <chr>
…
# Assumption: Model with the most variations means model with most variations in drv variable
mpg %>% 
  group_by(model, manufacturer, drv) %>% 
  summarise(sum_drv = as.numeric(table(drv)))

# A tibble: 38 x 4
# Groups:   model, manufacturer [?]
                model manufacturer   drv sum_drv
                <chr>        <chr> <chr>   <dbl>
 1        4runner 4wd       toyota     4       6
 2                 a4         audi     f       7
 3         a4 quattro         audi     4       8
 4         a6 quattro         audi     4       3
 5             altima       nissan     f       6
 6 c1500 suburban 2wd    chevrolet     r       5
 7              camry       toyota     f       7
 8       camry solara       toyota     f       7
 9        caravan 2wd        dodge     f      11
10              civic        honda     f       9
# ... with 28 more rows
…
#install.packages("babynames")
library(babynames)
hadley <- filter(babynames, name == "Hadley")
hadley

# A tibble: 159 x 5
    year   sex   name     n         prop
   <dbl> <chr>  <chr> <int>        <dbl>
 1  1906     M Hadley     6 4.164642e-05
 2  1908     M Hadley    16 9.617003e-05
 3  1909     M Hadley    14 7.915508e-05
 4  1910     M Hadley     5 2.397806e-05
 5  1911     M Hadley     9 3.728375e-05
 6  1912     M Hadley    11 2.436561e-05
 7  1913     M Hadley    10 1.864826e-05
 8  1914     M Hadley    15 2.195162e-05
 9  1915     M Hadley    14 1.589197e-05
10  1916     M Hadley    14 1.516369e-05
# ... with 149 more rows
…
